{

    "domain": "ayramis.eu.auth0.com",
    "clientId": "np3LUIEdcma5iZZV56SKOhVtDaUAC5cE",
    "audience": "http://localhost:8081/api",

    "appOrigin": "http://localhost:3000",
    "apiOrigin": "http://localhost:8081/api}"
}
